3.1 Data | Data Visualization in R
…
            Data Visualization in R

3.1 Data

As the foundation of every graphic, ggplot2 uses data to construct a plot. The system works best if the data is provided in a tidy format (we’re going to explorer it in the next section), which briefly means a rectangular data frame structure where rows are observations and columns are variables.

As the first step in many plots, you would pass the data to the ggplot() function, which stores the data to be used later by other parts of the plotting system. For example, if we intend to make a graphic about the mpg dataset, we would start as follows:

📌 Remember: Load the library before starting the analysis.

library(ggplot2)
data(package = "ggplot2")
mpg

## # A tibble: 234 × 11
##    manufacturer model      displ  year   cyl trans   drv     cty   hwy fl    class
##    <chr>        <chr>      <dbl> <int> <int> <chr>   <chr> <int> <int> <chr> <chr>
##  1 audi         a4           1.8  1999     4 auto(l… f        18    29 p     comp…
##  2 audi         a4           1.8  1999     4 manual… f        21    29 p     comp…
##  3 audi         a4           2    2008     4 manual… f        20    31 p     comp…
##  4 audi         a4           2    2008     4 auto(a… f        21    30 p     comp…
##  5 audi         a4           2.8  1999     6 auto(l… f        16    26 p     comp…
##  6 audi         a4           2.8  1999     6 manual… f        18    26 p     comp…
##  7 audi         a4           3.1  2008     6 auto(a… f        18    27 p     comp…
##  8 audi         a4 quattro   1.8  1999     4 manual… 4        18    26 p     comp…
##  9 audi         a4 quattro   1.8  1999     4 auto(l… 4        16    25 p     comp…
## 10 audi         a4 quattro   2    2008     4 manual… 4        20    28 p     comp…
## # ℹ 224 more rows
…
